HW2/simulation/qsim/HW2.msim.vcd
$comment
	File created using the following command:
		vcd file HW2.msim.vcd -direction
$end
$date
	Fri Jun 02 12:28:51 2023
$end
$version
	ModelSim Version 10.5b
$end
$timescale
	1ps
$end

$scope module fsm_vlg_vec_tst $end
$var reg 1 ! clk $end
$var reg 1 " pause $end
$var reg 1 # restart $end
$var reg 1 $ rst $end
$var wire 1 % even $end
$var wire 1 & odd $end
$var wire 1 ' state [1] $end
$var wire 1 ( state [0] $end
$var wire 1 ) terminal $end

$scope module i1 $end
$var wire 1 * gnd $end
$var wire 1 + vcc $end
$var wire 1 , unknown $end
$var tri1 1 - devclrn $end
$var tri1 1 . devpor $end
$var tri1 1 / devoe $end
$var wire 1 0 ~QUARTUS_CREATED_GND~I_combout $end
$var wire 1 1 clk~input_o $end
$var wire 1 2 clk~inputCLKENA0_outclk $end
$var wire 1 3 restart~input_o $end
$var wire 1 4 pause~input_o $end
$var wire 1 5 Mux0~0_combout $end
$var wire 1 6 rst~input_o $end
$var wire 1 7 state[1]~reg0_q $end
$var wire 1 8 Mux1~0_combout $end
$var wire 1 9 state[0]~reg0_q $end
$var wire 1 : Equal2~0_combout $end
$var wire 1 ; terminal~0_combout $end
$upscope $end
$upscope $end
$enddefinitions $end
#0
$dumpvars
0!
0"
0#
0$
0%
1&
1(
1'
0)
0*
1+
x,
1-
1.
1/
00
01
02
03
04
15
06
07
08
09
0:
0;
$end
#20000
1!
11
12
17
0&
0'
1:
18
05
1%
#40000
0!
01
02
#50000
1$
16
07
1&
1'
0:
08
15
0%
#60000
1!
11
12
#70000
0$
06
#80000
0!
01
02
#100000
1!
11
12
17
0&
0'
1:
18
05
1%
#120000
0!
01
02
#140000
1!
11
12
19
07
1&
1'
0(
1;
0:
08
0%
1)
#160000
0!
01
02
#180000
1!
11
12
09
1(
0;
15
0)
#200000
0!
01
02
#210000
1"
14
05
#220000
1!
11
12
#230000
0"
04
15
#240000
0!
01
02
#260000
1!
11
12
17
0&
0'
1:
18
05
1%
#280000
0!
01
02
#290000
1"
14
08
15
#300000
1!
11
12
#310000
0"
04
18
05
#320000
0!
01
02
#340000
1!
11
12
19
07
1&
1'
0(
1;
0:
08
0%
1)
#360000
0!
01
02
#370000
1"
14
0;
18
0)
#380000
1!
11
12
#390000
0"
04
1;
08
1)
#400000
0!
01
02
#420000
1!
11
12
09
1(
0;
15
0)
#440000
0!
01
02
#450000
1#
13
05
#460000
1!
11
12
#470000
0#
03
15
#480000
0!
01
02
#500000
1!
11
12
17
0&
0'
1:
18
05
1%
#520000
0!
01
02
#530000
1#
13
08
#540000
1!
11
12
07
1&
1'
0:
0%
#550000
0#
03
15
#560000
0!
01
02
#580000
1!
11
12
17
0&
0'
1:
18
05
1%
#600000
0!
01
02
#620000
1!
11
12
19
07
1&
1'
0(
1;
0:
08
0%
1)
#640000
0!
01
02
#650000
1"
1#
14
13
#660000
1!
11
12
09
1(
0;
0)
#670000
0"
0#
04
03
15
#680000
0!
01
02
#700000
1!
11
12
17
0&
0'
1:
18
05
1%
#720000
0!
01
02
#730000
1"
1#
14
13
08
#740000
1!
11
12
07
1&
1'
0:
0%
#750000
0"
0#
04
03
15
#760000
0!
01
02
#780000
1!
11
12
17
0&
0'
1:
18
05
1%
#800000
0!
01
02
#820000
1!
11
12
19
07
1&
1'
0(
1;
0:
08
0%
1)
#840000
0!
01
02
#860000
1!
11
12
09
1(
0;
15
0)
#880000
0!
01
02
#900000
1!
11
12
17
0&
0'
1:
18
05
1%
#920000
0!
01
02
#940000
1!
11
12
19
07
1&
1'
0(
1;
0:
08
0%
1)
#960000
0!
01
02
#980000
1!
11
12
09
1(
0;
15
0)
