James_Park_70315379_Lab_5/sim/lfsr/simulation/qsim/lfsr.msim.vcd
$comment
	File created using the following command:
		vcd file lfsr.msim.vcd -direction
$end
$date
	Mon Jun 26 20:43:57 2023
$end
$version
	ModelSim Version 10.5b
$end
$timescale
	1ps
$end

$scope module LFSR_vlg_vec_tst $end
$var reg 1 ! clk $end
$var wire 1 " lfsr [4] $end
$var wire 1 # lfsr [3] $end
$var wire 1 $ lfsr [2] $end
$var wire 1 % lfsr [1] $end
$var wire 1 & lfsr [0] $end

$scope module i1 $end
$var wire 1 ' gnd $end
$var wire 1 ( vcc $end
$var wire 1 ) unknown $end
$var tri1 1 * devclrn $end
$var tri1 1 + devpor $end
$var tri1 1 , devoe $end
$var wire 1 - ~QUARTUS_CREATED_GND~I_combout $end
$var wire 1 . clk~input_o $end
$var wire 1 / clk~inputCLKENA0_outclk $end
$var wire 1 0 lfsr[2]~reg0_q $end
$var wire 1 1 feedback~combout $end
$var wire 1 2 lfsr[4]~reg0DUPLICATE_q $end
$var wire 1 3 lfsr[3]~reg0feeder_combout $end
$var wire 1 4 lfsr[3]~reg0DUPLICATE_q $end
$var wire 1 5 lfsr[2]~reg0feeder_combout $end
$var wire 1 6 lfsr[2]~reg0DUPLICATE_q $end
$var wire 1 7 lfsr[1]~reg0feeder_combout $end
$var wire 1 8 lfsr[1]~reg0_q $end
$var wire 1 9 lfsr[0]~0_combout $end
$var wire 1 : lfsr[0]~reg0_q $end
$var wire 1 ; lfsr[1]~reg0DUPLICATE_q $end
$var wire 1 < lfsr[3]~reg0_q $end
$var wire 1 = lfsr[4]~reg0_q $end
$upscope $end
$upscope $end
$enddefinitions $end
#0
$dumpvars
1!
1&
0%
0$
0#
0"
0'
1(
x)
1*
1+
1,
0-
1.
1/
00
11
02
03
04
05
06
07
08
19
0:
0;
0<
0=
$end
#10000
0!
0.
0/
#20000
1!
1.
1/
1:
12
1=
1"
0&
13
01
#30000
0!
0.
0/
#40000
1!
1.
1/
14
02
0=
1<
1#
0"
03
15
#50000
0!
0.
0/
#60000
1!
1.
1/
04
10
0<
16
1$
0#
11
05
17
#70000
0!
0.
0/
#80000
1!
1.
1/
18
12
00
1=
1;
06
0$
1%
1"
01
13
09
07
#90000
0!
0.
0/
#100000
1!
1.
1/
0:
08
14
02
0=
1<
0;
0%
1#
0"
1&
03
15
19
11
#110000
0!
0.
0/
#120000
1!
1.
1/
1:
04
12
10
1=
0<
16
1$
0#
1"
0&
13
05
17
#130000
0!
0.
0/
#140000
1!
1.
1/
18
14
00
1<
1;
06
0$
1%
1#
01
15
09
07
#150000
0!
0.
0/
#160000
1!
1.
1/
0:
08
02
10
0=
0;
16
1$
0%
0"
1&
03
19
17
#170000
0!
0.
0/
#180000
1!
1.
1/
1:
18
04
0<
1;
1%
0#
0&
05
09
11
#190000
0!
0.
0/
#200000
1!
1.
1/
0:
12
00
1=
06
0$
1"
1&
13
07
#210000
0!
0.
0/
#220000
1!
1.
1/
08
14
1<
0;
0%
1#
15
19
#230000
0!
0.
0/
#240000
1!
1.
1/
1:
10
16
1$
0&
17
#250000
0!
0.
0/
#260000
1!
1.
1/
18
1;
1%
09
#270000
0!
0.
0/
#280000
1!
1.
1/
0:
1&
01
#290000
0!
0.
0/
#300000
1!
1.
1/
02
0=
0"
03
#310000
0!
0.
0/
#320000
1!
1.
1/
04
0<
0#
05
#330000
0!
0.
0/
#340000
1!
1.
1/
00
06
0$
11
07
#350000
0!
0.
0/
#360000
1!
1.
1/
08
12
1=
0;
0%
1"
13
19
#370000
0!
0.
0/
#380000
1!
1.
1/
1:
14
1<
1#
0&
15
01
#390000
0!
0.
0/
#400000
1!
1.
1/
02
10
0=
16
1$
0"
11
03
17
#410000
0!
0.
0/
#420000
1!
1.
1/
18
04
12
1=
0<
1;
1%
0#
1"
13
05
09
#430000
0!
0.
0/
#440000
1!
1.
1/
0:
14
00
1<
06
0$
1#
1&
15
07
#450000
0!
0.
0/
#460000
1!
1.
1/
08
10
0;
16
1$
0%
01
19
17
#470000
0!
0.
0/
#480000
1!
1.
1/
1:
18
02
0=
1;
1%
0"
0&
03
09
11
#490000
0!
0.
0/
#500000
1!
1.
1/
0:
04
12
1=
0<
0#
1"
1&
13
05
01
#510000
0!
0.
0/
#520000
1!
1.
1/
14
02
00
0=
1<
06
0$
1#
0"
11
03
15
07
#530000
0!
0.
0/
#540000
1!
1.
1/
08
04
12
10
1=
0<
0;
16
1$
0%
0#
1"
01
13
05
19
17
#550000
0!
0.
0/
#560000
1!
1.
1/
1:
18
14
02
00
0=
1<
1;
06
0$
1%
1#
0"
0&
03
15
09
07
#570000
0!
0.
0/
#580000
1!
1.
1/
0:
08
04
10
0<
0;
16
1$
0%
0#
1&
05
19
17
#590000
0!
0.
0/
#600000
1!
1.
1/
1:
18
00
1;
06
0$
1%
0&
09
07
#610000
0!
0.
0/
#620000
1!
1.
1/
0:
08
0;
0%
1&
19
11
#630000
0!
0.
0/
#640000
1!
1.
1/
1:
12
1=
1"
0&
13
01
#650000
0!
0.
0/
#660000
1!
1.
1/
14
02
0=
1<
1#
0"
03
15
#670000
0!
0.
0/
#680000
1!
1.
1/
04
10
0<
16
1$
0#
11
05
17
#690000
0!
0.
0/
#700000
1!
1.
1/
18
12
00
1=
1;
06
0$
1%
1"
01
13
09
07
#710000
0!
0.
0/
#720000
1!
1.
1/
0:
08
14
02
0=
1<
0;
0%
1#
0"
1&
03
15
19
11
#730000
0!
0.
0/
#740000
1!
1.
1/
1:
04
12
10
1=
0<
16
1$
0#
1"
0&
13
05
17
#750000
0!
0.
0/
#760000
1!
1.
1/
18
14
00
1<
1;
06
0$
1%
1#
01
15
09
07
#770000
0!
0.
0/
#780000
1!
1.
1/
0:
08
02
10
0=
0;
16
1$
0%
0"
1&
03
19
17
#790000
0!
0.
0/
#800000
1!
1.
1/
1:
18
04
0<
1;
1%
0#
0&
05
09
11
#810000
0!
0.
0/
#820000
1!
1.
1/
0:
12
00
1=
06
0$
1"
1&
13
07
#830000
0!
0.
0/
#840000
1!
1.
1/
08
14
1<
0;
0%
1#
15
19
#850000
0!
0.
0/
#860000
1!
1.
1/
1:
10
16
1$
0&
17
#870000
0!
0.
0/
#880000
1!
1.
1/
18
1;
1%
09
#890000
0!
0.
0/
#900000
1!
1.
1/
0:
1&
01
#910000
0!
0.
0/
#920000
1!
1.
1/
02
0=
0"
03
#930000
0!
0.
0/
#940000
1!
1.
1/
04
0<
0#
05
#950000
0!
0.
0/
#960000
1!
1.
1/
00
06
0$
11
07
#970000
0!
0.
0/
#980000
1!
1.
1/
08
12
1=
0;
0%
1"
13
19
#990000
0!
0.
0/
