HW3/simulation/qsim/HW3.msim.vcd
$comment
	File created using the following command:
		vcd file HW3.msim.vcd -direction
$end
$date
	Mon Jun 12 23:43:09 2023
$end
$version
	ModelSim Version 10.5b
$end
$timescale
	1ps
$end

$scope module shared_access_to_one_state_machine_vlg_vec_tst $end
$var reg 8 ! in_received_data [7:0] $end
$var reg 32 " input_arguments_a [31:0] $end
$var reg 32 # input_arguments_b [31:0] $end
$var reg 1 $ reset $end
$var reg 1 % sm_clk $end
$var reg 1 & start_request_a $end
$var reg 1 ' start_request_b $end
$var reg 1 ( target_state_machine_finished $end
$var wire 1 ) finish_a $end
$var wire 1 * finish_b $end
$var wire 1 + output_arguments [31] $end
$var wire 1 , output_arguments [30] $end
$var wire 1 - output_arguments [29] $end
$var wire 1 . output_arguments [28] $end
$var wire 1 / output_arguments [27] $end
$var wire 1 0 output_arguments [26] $end
$var wire 1 1 output_arguments [25] $end
$var wire 1 2 output_arguments [24] $end
$var wire 1 3 output_arguments [23] $end
$var wire 1 4 output_arguments [22] $end
$var wire 1 5 output_arguments [21] $end
$var wire 1 6 output_arguments [20] $end
$var wire 1 7 output_arguments [19] $end
$var wire 1 8 output_arguments [18] $end
$var wire 1 9 output_arguments [17] $end
$var wire 1 : output_arguments [16] $end
$var wire 1 ; output_arguments [15] $end
$var wire 1 < output_arguments [14] $end
$var wire 1 = output_arguments [13] $end
$var wire 1 > output_arguments [12] $end
$var wire 1 ? output_arguments [11] $end
$var wire 1 @ output_arguments [10] $end
$var wire 1 A output_arguments [9] $end
$var wire 1 B output_arguments [8] $end
$var wire 1 C output_arguments [7] $end
$var wire 1 D output_arguments [6] $end
$var wire 1 E output_arguments [5] $end
$var wire 1 F output_arguments [4] $end
$var wire 1 G output_arguments [3] $end
$var wire 1 H output_arguments [2] $end
$var wire 1 I output_arguments [1] $end
$var wire 1 J output_arguments [0] $end
$var wire 1 K received_data_a [7] $end
$var wire 1 L received_data_a [6] $end
$var wire 1 M received_data_a [5] $end
$var wire 1 N received_data_a [4] $end
$var wire 1 O received_data_a [3] $end
$var wire 1 P received_data_a [2] $end
$var wire 1 Q received_data_a [1] $end
$var wire 1 R received_data_a [0] $end
$var wire 1 S received_data_b [7] $end
$var wire 1 T received_data_b [6] $end
$var wire 1 U received_data_b [5] $end
$var wire 1 V received_data_b [4] $end
$var wire 1 W received_data_b [3] $end
$var wire 1 X received_data_b [2] $end
$var wire 1 Y received_data_b [1] $end
$var wire 1 Z received_data_b [0] $end
$var wire 1 [ reset_start_request_a $end
$var wire 1 \ reset_start_request_b $end
$var wire 1 ] start_target_state_machine $end

$scope module i1 $end
$var wire 1 ^ gnd $end
$var wire 1 _ vcc $end
$var wire 1 ` unknown $end
$var tri1 1 a devclrn $end
$var tri1 1 b devpor $end
$var tri1 1 c devoe $end
$var wire 1 d ~QUARTUS_CREATED_GND~I_combout $end
$var wire 1 e input_arguments_a[0]~input_o $end
$var wire 1 f input_arguments_b[0]~input_o $end
$var wire 1 g sm_clk~input_o $end
$var wire 1 h sm_clk~inputCLKENA0_outclk $end
$var wire 1 i target_state_machine_finished~input_o $end
$var wire 1 j start_request_a~input_o $end
$var wire 1 k start_request_b~input_o $end
$var wire 1 l Selector1~2_combout $end
$var wire 1 m reset~input_o $end
$var wire 1 n Selector0~1_combout $end
$var wire 1 o Equal6~0_combout $end
$var wire 1 p state[4]~DUPLICATE_q $end
$var wire 1 q Equal7~0_combout $end
$var wire 1 r Selector2~0_combout $end
$var wire 1 s Equal3~1_combout $end
$var wire 1 t Equal2~0_combout $end
$var wire 1 u Equal3~0_combout $end
$var wire 1 v WideOr0~combout $end
$var wire 1 w state[10]~DUPLICATE_q $end
$var wire 1 x Selector2~1_combout $end
$var wire 1 y state[5]~DUPLICATE_q $end
$var wire 1 z Equal0~0_combout $end
$var wire 1 { Selector0~0_combout $end
$var wire 1 | Equal0~1_combout $end
$var wire 1 } Selector0~2_combout $end
$var wire 1 ~ state~0_combout $end
$var wire 1 !! state[11]~DUPLICATE_q $end
$var wire 1 "! Equal8~1_combout $end
$var wire 1 #! Equal8~0_combout $end
$var wire 1 $! Selector1~0_combout $end
$var wire 1 %! Equal5~0_combout $end
$var wire 1 &! Selector1~1_combout $end
$var wire 1 '! output_arguments~0_combout $end
$var wire 1 (! input_arguments_b[1]~input_o $end
$var wire 1 )! input_arguments_a[1]~input_o $end
$var wire 1 *! output_arguments~1_combout $end
$var wire 1 +! input_arguments_b[2]~input_o $end
$var wire 1 ,! input_arguments_a[2]~input_o $end
$var wire 1 -! output_arguments~2_combout $end
$var wire 1 .! input_arguments_a[3]~input_o $end
$var wire 1 /! input_arguments_b[3]~input_o $end
$var wire 1 0! output_arguments~3_combout $end
$var wire 1 1! input_arguments_a[4]~input_o $end
$var wire 1 2! input_arguments_b[4]~input_o $end
$var wire 1 3! output_arguments~4_combout $end
$var wire 1 4! input_arguments_a[5]~input_o $end
$var wire 1 5! input_arguments_b[5]~input_o $end
$var wire 1 6! output_arguments~5_combout $end
$var wire 1 7! input_arguments_b[6]~input_o $end
$var wire 1 8! input_arguments_a[6]~input_o $end
$var wire 1 9! output_arguments~6_combout $end
$var wire 1 :! input_arguments_b[7]~input_o $end
$var wire 1 ;! input_arguments_a[7]~input_o $end
$var wire 1 <! output_arguments~7_combout $end
$var wire 1 =! input_arguments_a[8]~input_o $end
$var wire 1 >! input_arguments_b[8]~input_o $end
$var wire 1 ?! output_arguments~8_combout $end
$var wire 1 @! input_arguments_b[9]~input_o $end
$var wire 1 A! input_arguments_a[9]~input_o $end
$var wire 1 B! output_arguments~9_combout $end
$var wire 1 C! input_arguments_b[10]~input_o $end
$var wire 1 D! input_arguments_a[10]~input_o $end
$var wire 1 E! output_arguments~10_combout $end
$var wire 1 F! input_arguments_b[11]~input_o $end
$var wire 1 G! input_arguments_a[11]~input_o $end
$var wire 1 H! output_arguments~11_combout $end
$var wire 1 I! input_arguments_b[12]~input_o $end
$var wire 1 J! input_arguments_a[12]~input_o $end
$var wire 1 K! output_arguments~12_combout $end
$var wire 1 L! input_arguments_a[13]~input_o $end
$var wire 1 M! input_arguments_b[13]~input_o $end
$var wire 1 N! output_arguments~13_combout $end
$var wire 1 O! input_arguments_a[14]~input_o $end
$var wire 1 P! input_arguments_b[14]~input_o $end
$var wire 1 Q! output_arguments~14_combout $end
$var wire 1 R! input_arguments_b[15]~input_o $end
$var wire 1 S! input_arguments_a[15]~input_o $end
$var wire 1 T! output_arguments~15_combout $end
$var wire 1 U! input_arguments_a[16]~input_o $end
$var wire 1 V! input_arguments_b[16]~input_o $end
$var wire 1 W! output_arguments~16_combout $end
$var wire 1 X! input_arguments_a[17]~input_o $end
$var wire 1 Y! input_arguments_b[17]~input_o $end
$var wire 1 Z! output_arguments~17_combout $end
$var wire 1 [! input_arguments_a[18]~input_o $end
$var wire 1 \! input_arguments_b[18]~input_o $end
$var wire 1 ]! output_arguments~18_combout $end
$var wire 1 ^! input_arguments_a[19]~input_o $end
$var wire 1 _! input_arguments_b[19]~input_o $end
$var wire 1 `! output_arguments~19_combout $end
$var wire 1 a! input_arguments_a[20]~input_o $end
$var wire 1 b! input_arguments_b[20]~input_o $end
$var wire 1 c! output_arguments~20_combout $end
$var wire 1 d! input_arguments_b[21]~input_o $end
$var wire 1 e! input_arguments_a[21]~input_o $end
$var wire 1 f! output_arguments~21_combout $end
$var wire 1 g! input_arguments_a[22]~input_o $end
$var wire 1 h! input_arguments_b[22]~input_o $end
$var wire 1 i! output_arguments~22_combout $end
$var wire 1 j! input_arguments_b[23]~input_o $end
$var wire 1 k! input_arguments_a[23]~input_o $end
$var wire 1 l! output_arguments~23_combout $end
$var wire 1 m! input_arguments_b[24]~input_o $end
$var wire 1 n! input_arguments_a[24]~input_o $end
$var wire 1 o! output_arguments~24_combout $end
$var wire 1 p! input_arguments_b[25]~input_o $end
$var wire 1 q! input_arguments_a[25]~input_o $end
$var wire 1 r! output_arguments~25_combout $end
$var wire 1 s! input_arguments_b[26]~input_o $end
$var wire 1 t! input_arguments_a[26]~input_o $end
$var wire 1 u! output_arguments~26_combout $end
$var wire 1 v! input_arguments_b[27]~input_o $end
$var wire 1 w! input_arguments_a[27]~input_o $end
$var wire 1 x! output_arguments~27_combout $end
$var wire 1 y! input_arguments_a[28]~input_o $end
$var wire 1 z! input_arguments_b[28]~input_o $end
$var wire 1 {! output_arguments~28_combout $end
$var wire 1 |! input_arguments_b[29]~input_o $end
$var wire 1 }! input_arguments_a[29]~input_o $end
$var wire 1 ~! output_arguments~29_combout $end
$var wire 1 !" input_arguments_b[30]~input_o $end
$var wire 1 "" input_arguments_a[30]~input_o $end
$var wire 1 #" output_arguments~30_combout $end
$var wire 1 $" input_arguments_b[31]~input_o $end
$var wire 1 %" input_arguments_a[31]~input_o $end
$var wire 1 &" output_arguments~31_combout $end
$var wire 1 '" in_received_data[0]~input_o $end
$var wire 1 (" received_data_a[0]~reg0_q $end
$var wire 1 )" in_received_data[1]~input_o $end
$var wire 1 *" received_data_a[1]~reg0_q $end
$var wire 1 +" in_received_data[2]~input_o $end
$var wire 1 ," received_data_a[2]~reg0_q $end
$var wire 1 -" in_received_data[3]~input_o $end
$var wire 1 ." received_data_a[3]~reg0feeder_combout $end
$var wire 1 /" received_data_a[3]~reg0_q $end
$var wire 1 0" in_received_data[4]~input_o $end
$var wire 1 1" received_data_a[4]~reg0_q $end
$var wire 1 2" in_received_data[5]~input_o $end
$var wire 1 3" received_data_a[5]~reg0feeder_combout $end
$var wire 1 4" received_data_a[5]~reg0_q $end
$var wire 1 5" in_received_data[6]~input_o $end
$var wire 1 6" received_data_a[6]~reg0feeder_combout $end
$var wire 1 7" received_data_a[6]~reg0_q $end
$var wire 1 8" in_received_data[7]~input_o $end
$var wire 1 9" received_data_a[7]~reg0_q $end
$var wire 1 :" received_data_b[0]~reg0_q $end
$var wire 1 ;" received_data_b[1]~reg0_q $end
$var wire 1 <" received_data_b[2]~reg0_q $end
$var wire 1 =" received_data_b[3]~reg0feeder_combout $end
$var wire 1 >" received_data_b[3]~reg0_q $end
$var wire 1 ?" received_data_b[4]~reg0_q $end
$var wire 1 @" received_data_b[5]~reg0feeder_combout $end
$var wire 1 A" received_data_b[5]~reg0_q $end
$var wire 1 B" received_data_b[6]~reg0feeder_combout $end
$var wire 1 C" received_data_b[6]~reg0_q $end
$var wire 1 D" received_data_b[7]~reg0_q $end
$var wire 1 E" state [11] $end
$var wire 1 F" state [10] $end
$var wire 1 G" state [9] $end
$var wire 1 H" state [8] $end
$var wire 1 I" state [7] $end
$var wire 1 J" state [6] $end
$var wire 1 K" state [5] $end
$var wire 1 L" state [4] $end
$var wire 1 M" state [3] $end
$var wire 1 N" state [2] $end
$var wire 1 O" state [1] $end
$var wire 1 P" state [0] $end
$upscope $end
$upscope $end
$enddefinitions $end
#0
$dumpvars
b11111111 !
b10101010101010101010101010101010 "
b10111011101110111011101110111011 #
1$
0%
1&
1'
0(
0)
0*
0J
1I
0H
1G
0F
1E
0D
1C
0B
1A
0@
1?
0>
1=
0<
1;
0:
19
08
17
06
15
04
13
02
11
00
1/
0.
1-
0,
1+
0R
0Q
0P
0O
0N
0M
0L
0K
0Z
0Y
0X
0W
0V
0U
0T
0S
0[
0\
0]
0^
1_
x`
1a
1b
1c
0d
0e
1f
0g
0h
0i
1j
1k
0l
1m
0n
0o
0p
0q
1r
0s
0t
0u
0v
0w
1x
0y
1z
0{
1|
1}
0~
0!!
1"!
0#!
0$!
0%!
0&!
0'!
1(!
1)!
1*!
0+!
0,!
0-!
1.!
1/!
10!
01!
12!
03!
14!
15!
16!
07!
08!
09!
1:!
1;!
1<!
0=!
1>!
0?!
1@!
1A!
1B!
0C!
0D!
0E!
1F!
1G!
1H!
1I!
0J!
0K!
1L!
1M!
1N!
0O!
0P!
0Q!
1R!
1S!
1T!
0U!
1V!
0W!
1X!
1Y!
1Z!
0[!
0\!
0]!
1^!
1_!
1`!
0a!
1b!
0c!
1d!
1e!
1f!
0g!
0h!
0i!
1j!
1k!
1l!
1m!
0n!
0o!
1p!
1q!
1r!
0s!
0t!
0u!
1v!
1w!
1x!
0y!
1z!
0{!
1|!
1}!
1~!
0!"
0""
0#"
1$"
1%"
1&"
1'"
0("
1)"
0*"
1+"
0,"
1-"
1."
0/"
10"
01"
12"
13"
04"
15"
16"
07"
18"
09"
0:"
0;"
0<"
1="
0>"
0?"
1@"
0A"
1B"
0C"
0D"
0P"
0O"
0N"
0M"
0L"
0K"
0J"
0I"
zH"
0G"
0F"
0E"
$end
#20000
1%
1g
1h
#30000
0$
0m
#40000
0%
0g
0h
#60000
1%
1g
1h
1G"
1N"
1O"
1]
1[
0|
1s
0z
0"!
1t
0}
0x
0r
1v
#80000
0%
0g
0h
#100000
1%
1g
1h
0G"
1w
1F"
0N"
0O"
0]
0[
0s
1|
1z
0t
#120000
0%
0g
0h
#140000
1%
1g
1h
#160000
0%
0g
0h
#170000
1(
1i
1}
1n
#180000
1%
1g
1h
1G"
1J"
0|
1~
1o
0}
0v
0n
#190000
0(
0i
#200000
0%
0g
0h
#220000
1%
1g
1h
1!!
0G"
0w
0F"
1E"
1p
0J"
19"
17"
14"
11"
1/"
1,"
1*"
1("
1L"
1)
1R
1Q
1P
1O
1N
1M
1L
1K
1"!
1|
0z
0~
0o
1#!
1&!
#240000
b1111111 !
b111111 !
b11111 !
b1111 !
b111 !
b11 !
b1 !
b0 !
0%
0'"
0)"
0+"
0-"
00"
02"
05"
08"
0g
0h
0B"
06"
0@"
03"
0="
0."
#260000
1%
1g
1h
1P"
0!!
0E"
0p
0L"
0)
0#!
1z
0"!
1{!
1o!
1c!
1W!
1K!
1?!
13!
1'!
1J
1F
1B
1>
1:
16
12
1.
1$!
1}
1r
1l
0&!
1&!
#270000
b10000000 !
b11000000 !
b11010000 !
b11011000 !
b11011100 !
b11011101 !
1'"
1+"
1-"
10"
15"
18"
1B"
16"
1="
1."
#280000
0%
0g
0h
#300000
1%
1g
1h
1G"
1O"
1M"
1\
1]
0|
1s
0z
0$!
1u
0}
0r
0l
1v
#320000
0%
0g
0h
#340000
1%
1g
1h
0G"
1w
1F"
0O"
0M"
0\
0]
0s
1|
1z
0u
1%!
0&!
1&!
#360000
0%
0g
0h
#370000
1(
1i
1}
1{
#380000
1%
1g
1h
1G"
1I"
0|
1q
1~
0%!
0}
0{
0v
#390000
0(
0i
#400000
0%
0g
0h
#410000
0&
0'
0j
0k
#420000
1%
1g
1h
1!!
0G"
0I"
1y
0w
0F"
1E"
1D"
1C"
1?"
1>"
1<"
1:"
1K"
1*
1Z
1X
1W
1V
1T
1S
0z
0q
1|
0~
0&!
#440000
0%
0g
0h
#450000
b1011101 !
b11101 !
b1101 !
b101 !
b1 !
b0 !
0'"
0+"
0-"
00"
05"
08"
0B"
06"
0="
0."
#460000
1%
1g
1h
0P"
0!!
0y
0E"
0K"
0*
1z
1"!
0{!
0o!
0c!
0W!
0K!
0?!
03!
0'!
0J
0F
0B
0>
0:
06
02
0.
1$!
1&!
#480000
0%
0g
0h
#500000
1%
1g
1h
1P"
0$!
0"!
1{!
1o!
1c!
1W!
1K!
1?!
13!
1'!
1J
1F
1B
1>
1:
16
12
1.
0&!
#520000
0%
0g
0h
#540000
1%
1g
1h
0P"
1$!
1"!
0{!
0o!
0c!
0W!
0K!
0?!
03!
0'!
0J
0F
0B
0>
0:
06
02
0.
1&!
#560000
0%
0g
0h
#580000
1%
1g
1h
1P"
0$!
0"!
1{!
1o!
1c!
1W!
1K!
1?!
13!
1'!
1J
1F
1B
1>
1:
16
12
1.
0&!
#600000
0%
0g
0h
#620000
1%
1g
1h
0P"
1$!
1"!
0{!
0o!
0c!
0W!
0K!
0?!
03!
0'!
0J
0F
0B
0>
0:
06
02
0.
1&!
#640000
0%
0g
0h
#660000
1%
1g
1h
1P"
0$!
0"!
1{!
1o!
1c!
1W!
1K!
1?!
13!
1'!
1J
1F
1B
1>
1:
16
12
1.
0&!
#680000
0%
0g
0h
#700000
1%
1g
1h
0P"
1$!
1"!
0{!
0o!
0c!
0W!
0K!
0?!
03!
0'!
0J
0F
0B
0>
0:
06
02
0.
1&!
#720000
0%
0g
0h
#740000
1%
1g
1h
1P"
0$!
0"!
1{!
1o!
1c!
1W!
1K!
1?!
13!
1'!
1J
1F
1B
1>
1:
16
12
1.
0&!
#760000
0%
0g
0h
#780000
1%
1g
1h
0P"
1$!
1"!
0{!
0o!
0c!
0W!
0K!
0?!
03!
0'!
0J
0F
0B
0>
0:
06
02
0.
1&!
#800000
0%
0g
0h
#820000
1%
1g
1h
1P"
0$!
0"!
1{!
1o!
1c!
1W!
1K!
1?!
13!
1'!
1J
1F
1B
1>
1:
16
12
1.
0&!
#840000
0%
0g
0h
#860000
1%
1g
1h
0P"
1$!
1"!
0{!
0o!
0c!
0W!
0K!
0?!
03!
0'!
0J
0F
0B
0>
0:
06
02
0.
1&!
#880000
0%
0g
0h
#900000
1%
1g
1h
1P"
0$!
0"!
1{!
1o!
1c!
1W!
1K!
1?!
13!
1'!
1J
1F
1B
1>
1:
16
12
1.
0&!
#920000
0%
0g
0h
#940000
1%
1g
1h
0P"
1$!
1"!
0{!
0o!
0c!
0W!
0K!
0?!
03!
0'!
0J
0F
0B
0>
0:
06
02
0.
1&!
#960000
0%
0g
0h
#980000
1%
1g
1h
1P"
0$!
0"!
1{!
1o!
1c!
1W!
1K!
1?!
13!
1'!
1J
1F
1B
1>
1:
16
12
1.
0&!
