James_Park_70315379_Lab_5/rtl/lab5/simulation/qsim/dds_and_nios_lab.msim.vcd
$comment
	File created using the following command:
		vcd file dds_and_nios_lab.msim.vcd -direction
$end
$date
	Sat Jun 24 02:50:08 2023
$end
$version
	ModelSim Version 10.5b
$end
$timescale
	1ps
$end

$scope module LFSR_vlg_vec_tst $end
$var reg 1 ! clk $end
$var reg 1 " reset_n $end
$var wire 1 # lfsr [4] $end
$var wire 1 $ lfsr [3] $end
$var wire 1 % lfsr [2] $end
$var wire 1 & lfsr [1] $end
$var wire 1 ' lfsr [0] $end

$scope module i1 $end
$var wire 1 ( gnd $end
$var wire 1 ) vcc $end
$var wire 1 * unknown $end
$var tri1 1 + devclrn $end
$var tri1 1 , devpor $end
$var tri1 1 - devoe $end
$var wire 1 . ~QUARTUS_CREATED_GND~I_combout $end
$var wire 1 / clk~input_o $end
$var wire 1 0 clk~inputCLKENA0_outclk $end
$var wire 1 1 reset_n~input_o $end
$var wire 1 2 lfsr[0]~reg0_q $end
$var wire 1 3 feedback~combout $end
$var wire 1 4 lfsr[4]~reg0_q $end
$var wire 1 5 lfsr[3]~reg0feeder_combout $end
$var wire 1 6 lfsr[3]~reg0_q $end
$var wire 1 7 lfsr[2]~reg0feeder_combout $end
$var wire 1 8 lfsr[2]~reg0_q $end
$var wire 1 9 lfsr[1]~reg0_q $end
$var wire 1 : lfsr[0]~0_combout $end
$var wire 1 ; lfsr[0]~reg0DUPLICATE_q $end
$var wire 1 < lfsr[1]~reg0DUPLICATE_q $end
$var wire 1 = lfsr[4]~reg0DUPLICATE_q $end
$upscope $end
$upscope $end
$enddefinitions $end
#0
$dumpvars
1!
1"
1'
0&
0%
0$
0#
0(
1)
x*
1+
1,
1-
0.
1/
10
11
02
13
04
05
06
07
08
09
1:
0;
0<
0=
$end
#10000
0!
0/
00
#20000
1!
1/
10
1;
14
12
1=
1#
0'
03
15
#30000
0!
0/
00
#40000
1!
1/
10
04
0=
16
1$
0#
05
17
#50000
0!
0/
00
#60000
1!
1/
10
18
06
0$
1%
07
13
#70000
0!
0/
00
#80000
1!
1/
10
19
14
1=
1<
08
0%
1&
1#
15
0:
03
#90000
0!
0/
00
#100000
1!
1/
10
0;
09
04
02
0=
0<
16
1$
0&
0#
1'
13
05
1:
17
#110000
0!
0/
00
#120000
1!
1/
10
1;
14
12
1=
18
06
0$
1%
1#
0'
15
07
#130000
0!
0/
00
#140000
1!
1/
10
19
1<
08
16
1$
0%
1&
0:
17
03
#150000
0!
0/
00
#160000
1!
1/
10
0;
09
04
02
0=
0<
18
1%
0&
0#
1'
05
1:
#170000
0!
0/
00
#180000
1!
1/
10
1;
19
12
1<
06
0$
1&
0'
13
0:
07
#190000
0!
0/
00
#200000
1!
1/
10
0;
14
02
1=
08
0%
1#
1'
15
#210000
0!
0/
00
#220000
1!
1/
10
09
0<
16
1$
0&
1:
17
#230000
0!
0/
00
#240000
1!
1/
10
1;
12
18
1%
0'
#250000
0!
0/
00
#260000
1!
1/
10
19
1<
1&
0:
#270000
0!
0/
00
#280000
1!
1/
10
0;
02
1'
03
#290000
0!
0/
00
#300000
1!
1/
10
04
0=
0#
05
#310000
0!
0/
00
#320000
1!
1/
10
06
0$
07
#330000
0!
0/
00
#340000
1!
1/
10
08
0%
13
#350000
0!
0/
00
#360000
1!
1/
10
09
14
1=
0<
0&
1#
15
1:
#370000
0!
0/
00
#380000
1!
1/
10
1;
12
16
1$
0'
03
17
#390000
0!
0/
00
#400000
1!
1/
10
04
0=
18
1%
0#
05
13
#410000
0!
0/
00
#420000
1!
1/
10
19
14
1=
1<
06
0$
1&
1#
15
0:
07
#430000
0!
0/
00
#440000
1!
1/
10
0;
02
08
16
1$
0%
1'
17
#450000
0!
0/
00
#460000
1!
1/
10
09
0<
18
1%
0&
1:
03
#470000
0!
0/
00
#480000
1!
1/
10
1;
19
04
12
0=
1<
1&
0#
0'
13
05
0:
#490000
0!
0/
00
#500000
1!
1/
10
0;
14
02
1=
06
0$
1#
1'
03
15
07
#510000
0!
0/
00
#520000
1!
1/
10
04
0=
08
16
1$
0%
0#
05
17
13
#530000
0!
0/
00
#540000
1!
1/
10
09
14
1=
0<
18
06
0$
1%
0&
1#
15
1:
07
03
#550000
0!
0/
00
#560000
1!
1/
10
1;
19
04
12
0=
1<
08
16
1$
0%
1&
0#
0'
05
0:
17
#570000
0!
0/
00
#580000
1!
1/
10
0;
09
02
0<
18
06
0$
1%
0&
1'
1:
07
#590000
0!
0/
00
#600000
1!
1/
10
1;
19
12
1<
08
0%
1&
0'
0:
#610000
0!
0/
00
#620000
1!
1/
10
0;
09
02
0<
0&
1'
13
1:
#630000
0!
0/
00
#640000
1!
1/
10
1;
14
12
1=
1#
0'
03
15
#650000
0!
0/
00
#660000
1!
1/
10
04
0=
16
1$
0#
05
17
#670000
0!
0/
00
#680000
1!
1/
10
18
06
0$
1%
07
13
#690000
0!
0/
00
#700000
1!
1/
10
19
14
1=
1<
08
0%
1&
1#
15
0:
03
#710000
0!
0/
00
#720000
1!
1/
10
0;
09
04
02
0=
0<
16
1$
0&
0#
1'
13
05
1:
17
#730000
0!
0/
00
#740000
1!
1/
10
1;
14
12
1=
18
06
0$
1%
1#
0'
15
07
#750000
0!
0/
00
#760000
1!
1/
10
19
1<
08
16
1$
0%
1&
0:
17
03
#770000
0!
0/
00
#780000
1!
1/
10
0;
09
04
02
0=
0<
18
1%
0&
0#
1'
05
1:
#790000
0!
0/
00
#800000
1!
1/
10
1;
19
12
1<
06
0$
1&
0'
13
0:
07
#810000
0!
0/
00
#820000
1!
1/
10
0;
14
02
1=
08
0%
1#
1'
15
#830000
0!
0/
00
#840000
1!
1/
10
09
0<
16
1$
0&
1:
17
#850000
0!
0/
00
#860000
1!
1/
10
1;
12
18
1%
0'
#870000
0!
0/
00
#880000
1!
1/
10
19
1<
1&
0:
#890000
0!
0/
00
#900000
1!
1/
10
0;
02
1'
03
#910000
0!
0/
00
#920000
1!
1/
10
04
0=
0#
05
#930000
0!
0/
00
#940000
1!
1/
10
06
0$
07
#950000
0!
0/
00
#960000
1!
1/
10
08
0%
13
#970000
0!
0/
00
#980000
1!
1/
10
09
14
1=
0<
0&
1#
15
1:
#990000
0!
0/
00
